{
  "classic": [
    "Tom Hanks",
    "Robert Downey Jr.",
    "Johnny Depp",
    "Will Smith",
    "Brad Pitt",
    "Leonardo DiCaprio",
    "Morgan Freeman",
    "Chris Hemsworth",
    "Tom Cruise",
    "Samuel Lee Jackson",
    "Ariana Grande",
    "Billie Eilish",
    "Taylour Swift",
    "Ed Sheeran",
    "Selena Gomez",
    "Beyoncé",
    "Lady Gaga",
    "Bruno Mars",
    "Katy Perry",
    "Justin Bieber",
    "Queen",
    "The Doors",
    "Nirvana",
    "The Who",
    "U2",
    "Led Zeppelin",
    "The Beach Boys",
    "Pink Floyd",
    "The Rolling Stones",
    "The Beatles",
    "Homer Simpson",
    "Barney Stinson",
    "Sherlock Holmes",
    "Batman",
    "Gandalf",
    "Anakin Skywalker",
    "Hermione Granger",
    "James Bond",
    "Mickey Mouse",
    "Barbie",
    "Donald Trump",
    "Bernie Sanders",
    "Joe Biden",
    "Pewdiepie",
    "Kim Karadashian",
    "Steve Jobs",
    "Jeff Bezos",
    "Mark Zuckerberg",
    "Bill Gates",
    "Marilyn Monroe"
  ]
}
